{
    "relationships": [
        {
            "relationshipName": "user",
            "otherEntityName": "user",
            "relationshipType": "many-to-one",
            "otherEntityField": "id"
        },
        {
            "relationshipName": "resultado",
            "otherEntityName": "resultado",
            "relationshipType": "one-to-one",
            "otherEntityField": "id",
            "ownerSide": true,
            "otherEntityRelationshipName": "avaliacao"
        }
    ],
    "fields": [
        {
            "fieldName": "data",
            "fieldType": "ZonedDateTime"
        },
        {
            "fieldName": "status",
            "fieldType": "String"
        }
    ],
    "changelogDate": "20160504215624",
    "dto": "no",
    "service": "no",
    "entityTableName": "avaliacao",
    "pagination": "no"
}
