{
    "fluentMethods": true,
    "relationships": [
        {
            "relationshipName": "pergunta",
            "otherEntityName": "pergunta",
            "relationshipType": "many-to-one",
            "otherEntityField": "id"
        }
    ],
    "fields": [
        {
            "fieldName": "descricao",
            "fieldType": "String"
        },
        {
            "fieldName": "dica",
            "fieldType": "String"
        },
        {
            "fieldName": "link",
            "fieldType": "String"
        }
    ],
    "changelogDate": "20170419014419",
    "dto": "no",
    "service": "no",
    "entityTableName": "pergunta_detalhada",
    "pagination": "no"
}
